{
  "plates": [
    {
      "id": 2,
      "name": "Omelet",
      "description": "Cook the egg for about 10 minutes and add salt"
    },
    {
      "name": "Orange fresh juice",
      "description": "Cut some oranges and put in the extractor and server",
      "id": 5
    },
    {
      "name": "Bolon of chicharron",
      "description": "A fresh plate of green platanate and chicharron",
      "id": 8
    },
    {
      "name": "Cevichocho",
      "description": "A plate with chochos famous in Quito",
      "id": 9
    },
    {
      "name": "Churrasco with a lot of rice",
      "description": "Meat with a lot of rice and orange juice",
      "id": 10
    },
    {
      "name": "Encebolladouu",
      "description": "A soup with fish and platanates",
      "id": 11
    }
  ]
}